{
   "0008,0005" : {
      "Name" : "SpecificCharacterSet",
      "Type" : "String",
      "Value" : "ISO_IR 100"
   },
   "0008,0008" : {
      "Name" : "ImageType",
      "Type" : "String",
      "Value" : "ORIGINAL\\PRIMARY"
   },
   "0008,0016" : {
      "Name" : "SOPClassUID",
      "Type" : "String",
      "Value" : "1.2.840.10008.5.1.4.1.1.1.2.1"
   },
   "0008,0018" : {
      "Name" : "SOPInstanceUID",
      "Type" : "String",
      "Value" : "1.2.840.113681.2887322370.1395049273.3372.2563"
   },
   "0008,0020" : {
      "Name" : "StudyDate",
      "Type" : "String",
      "Value" : "20140317"
   },
   "0008,0021" : {
      "Name" : "SeriesDate",
      "Type" : "String",
      "Value" : "20140317"
   },
   "0008,0022" : {
      "Name" : "AcquisitionDate",
      "Type" : "String",
      "Value" : "20140317"
   },
   "0008,0023" : {
      "Name" : "ContentDate",
      "Type" : "String",
      "Value" : "20140317"
   },
   "0008,0030" : {
      "Name" : "StudyTime",
      "Type" : "String",
      "Value" : "160147"
   },
   "0008,0031" : {
      "Name" : "SeriesTime",
      "Type" : "String",
      "Value" : "160147"
   },
   "0008,0032" : {
      "Name" : "AcquisitionTime",
      "Type" : "String",
      "Value" : "160147"
   },
   "0008,0033" : {
      "Name" : "ContentTime",
      "Type" : "String",
      "Value" : "160147"
   },
   "0008,0050" : {
      "Name" : "AccessionNumber",
      "Type" : "String",
      "Value" : "Artifact Evaluat"
   },
   "0008,0060" : {
      "Name" : "Modality",
      "Type" : "String",
      "Value" : "MG"
   },
   "0008,0068" : {
      "Name" : "PresentationIntentType",
      "Type" : "String",
      "Value" : "FOR PROCESSING"
   },
   "0008,0070" : {
      "Name" : "Manufacturer",
      "Type" : "String",
      "Value" : "HOLOGIC, Inc."
   },
   "0008,0080" : {
      "Name" : "InstitutionName",
      "Type" : "String",
      "Value" : "St.Antonius Ziekenhuis Utrecht"
   },
   "0008,0081" : {
      "Name" : "InstitutionAddress",
      "Type" : "String",
      "Value" : "Utrecht"
   },
   "0008,0090" : {
      "Name" : "ReferringPhysicianName",
      "Type" : "String",
      "Value" : ""
   },
   "0008,1010" : {
      "Name" : "StationName",
      "Type" : "String",
      "Value" : "UTRONTGMAM1"
   },
   "0008,1030" : {
      "Name" : "StudyDescription",
      "Type" : "String",
      "Value" : "Artifact Evaluation"
   },
   "0008,103e" : {
      "Name" : "SeriesDescription",
      "Type" : "String",
      "Value" : "Flat Field Conv"
   },
   "0008,1040" : {
      "Name" : "InstitutionalDepartmentName",
      "Type" : "String",
      "Value" : "Mammography"
   },
   "0008,1070" : {
      "Name" : "OperatorsName",
      "Type" : "String",
      "Value" : "Carien"
   },
   "0008,1090" : {
      "Name" : "ManufacturerModelName",
      "Type" : "String",
      "Value" : "Selenia Dimensions"
   },
   "0008,2218" : {
      "Name" : "AnatomicRegionSequence",
      "Type" : "Sequence",
      "Value" : [
         {
            "0008,0100" : {
               "Name" : "CodeValue",
               "Type" : "String",
               "Value" : "T-04000"
            },
            "0008,0102" : {
               "Name" : "CodingSchemeDesignator",
               "Type" : "String",
               "Value" : "SRT"
            },
            "0008,0104" : {
               "Name" : "CodeMeaning",
               "Type" : "String",
               "Value" : "Breast"
            }
         }
      ]
   },
   "0010,0010" : {
      "Name" : "PatientName",
      "Type" : "String",
      "Value" : "Artifact Evaluation^UTRONTGMAM1 17-Mar-14 16_00_54"
   },
   "0010,0020" : {
      "Name" : "PatientID",
      "Type" : "String",
      "Value" : "Artifact Evaluation UTRONTGMAM1 17-Mar-14 16_00_54"
   },
   "0010,0030" : {
      "Name" : "PatientBirthDate",
      "Type" : "String",
      "Value" : "20140317"
   },
   "0010,0040" : {
      "Name" : "PatientSex",
      "Type" : "String",
      "Value" : "F"
   },
   "0010,1010" : {
      "Name" : "PatientAge",
      "Type" : "String",
      "Value" : "000Y"
   },
   "0018,0015" : {
      "Name" : "BodyPartExamined",
      "Type" : "String",
      "Value" : "BREAST"
   },
   "0018,0060" : {
      "Name" : "KVP",
      "Type" : "String",
      "Value" : "28"
   },
   "0018,1000" : {
      "Name" : "DeviceSerialNumber",
      "Type" : "String",
      "Value" : "G-81004132248"
   },
   "0018,1020" : {
      "Name" : "SoftwareVersions",
      "Type" : "Null",
      "Value" : null
   },
   "0018,1030" : {
      "Name" : "ProtocolName",
      "Type" : "String",
      "Value" : "Flat Field Conv"
   },
   "0018,1110" : {
      "Name" : "DistanceSourceToDetector",
      "Type" : "String",
      "Value" : "700"
   },
   "0018,1111" : {
      "Name" : "DistanceSourceToPatient",
      "Type" : "String",
      "Value" : "481"
   },
   "0018,1114" : {
      "Name" : "EstimatedRadiographicMagnificationFactor",
      "Type" : "String",
      "Value" : "1.073"
   },
   "0018,1150" : {
      "Name" : "ExposureTime",
      "Type" : "String",
      "Value" : "1006"
   },
   "0018,1151" : {
      "Name" : "XRayTubeCurrent",
      "Type" : "String",
      "Value" : "100"
   },
   "0018,1152" : {
      "Name" : "Exposure",
      "Type" : "String",
      "Value" : "110"
   },
   "0018,1153" : {
      "Name" : "ExposureInuAs",
      "Type" : "String",
      "Value" : "110400"
   },
   "0018,1164" : {
      "Name" : "ImagerPixelSpacing",
      "Type" : "String",
      "Value" : "0.070000\\0.070000"
   },
   "0018,1166" : {
      "Name" : "Grid",
      "Type" : "String",
      "Value" : "IN"
   },
   "0018,1190" : {
      "Name" : "FocalSpots",
      "Type" : "String",
      "Value" : "0.3"
   },
   "0018,1191" : {
      "Name" : "AnodeTargetMaterial",
      "Type" : "String",
      "Value" : "TUNGSTEN"
   },
   "0018,11a0" : {
      "Name" : "BodyPartThickness",
      "Type" : "String",
      "Value" : "194"
   },
   "0018,11a2" : {
      "Name" : "CompressionForce",
      "Type" : "String",
      "Value" : "0"
   },
   "0018,11a4" : {
      "Name" : "Unknown Tag & Data",
      "Type" : "String",
      "Value" : "NONE"
   },
   "0018,1405" : {
      "Name" : "RelativeXRayExposure",
      "Type" : "String",
      "Value" : "349"
   },
   "0018,1508" : {
      "Name" : "PositionerType",
      "Type" : "String",
      "Value" : "MAMMOGRAPHIC"
   },
   "0018,1510" : {
      "Name" : "PositionerPrimaryAngle",
      "Type" : "String",
      "Value" : "0"
   },
   "0018,5101" : {
      "Name" : "ViewPosition",
      "Type" : "String",
      "Value" : "FLATFIELD"
   },
   "0018,7000" : {
      "Name" : "DetectorConditionsNominalFlag",
      "Type" : "String",
      "Value" : "YES"
   },
   "0018,7001" : {
      "Name" : "DetectorTemperature",
      "Type" : "String",
      "Value" : "31.95"
   },
   "0018,7004" : {
      "Name" : "DetectorType",
      "Type" : "String",
      "Value" : "DIRECT"
   },
   "0018,700a" : {
      "Name" : "DetectorID",
      "Type" : "String",
      "Value" : "YM800562"
   },
   "0018,700c" : {
      "Name" : "DateOfLastDetectorCalibration",
      "Type" : "String",
      "Value" : "20140317"
   },
   "0018,700e" : {
      "Name" : "TimeOfLastDetectorCalibration",
      "Type" : "String",
      "Value" : "092036"
   },
   "0018,701a" : {
      "Name" : "DetectorBinning",
      "Type" : "String",
      "Value" : "1\\1"
   },
   "0018,7030" : {
      "Name" : "FieldOfViewOrigin",
      "Type" : "String",
      "Value" : "0\\236"
   },
   "0018,7032" : {
      "Name" : "FieldOfViewRotation",
      "Type" : "String",
      "Value" : "0"
   },
   "0018,7034" : {
      "Name" : "FieldOfViewHorizontalFlip",
      "Type" : "String",
      "Value" : "NO"
   },
   "0018,7050" : {
      "Name" : "FilterMaterial",
      "Type" : "String",
      "Value" : "RHODIUM"
   },
   "0018,7052" : {
      "Name" : "FilterThicknessMinimum",
      "Type" : "String",
      "Value" : "0.05"
   },
   "0018,7054" : {
      "Name" : "FilterThicknessMaximum",
      "Type" : "String",
      "Value" : "0.05"
   },
   "0018,7060" : {
      "Name" : "ExposureControlMode",
      "Type" : "String",
      "Value" : "AUTOMATIC"
   },
   "0018,7062" : {
      "Name" : "ExposureControlModeDescription",
      "Type" : "String",
      "Value" : "AutoTime"
   },
   "0018,8150" : {
      "Name" : "ExposureTimeInuS",
      "Type" : "String",
      "Value" : "1006000"
   },
   "0019,0010" : {
      "Name" : "PrivateCreator",
      "Type" : "String",
      "Value" : "HOLOGIC, Inc."
   },
   "0019,1006" : {
      "Name" : "Unknown Tag & Data",
      "PrivateCreator" : "HOLOGIC, Inc.",
      "Type" : "String",
      "Value" : "0"
   },
   "0019,1007" : {
      "Name" : "Unknown Tag & Data",
      "PrivateCreator" : "HOLOGIC, Inc.",
      "Type" : "String",
      "Value" : "0"
   },
   "0019,1008" : {
      "Name" : "Unknown Tag & Data",
      "PrivateCreator" : "HOLOGIC, Inc.",
      "Type" : "String",
      "Value" : "0"
   },
   "0019,1016" : {
      "Name" : "Unknown Tag & Data",
      "PrivateCreator" : "HOLOGIC, Inc.",
      "Type" : "String",
      "Value" : "0"
   },
   "0019,1025" : {
      "Name" : "Unknown Tag & Data",
      "PrivateCreator" : "HOLOGIC, Inc.",
      "Type" : "String",
      "Value" : "NORMAL"
   },
   "0019,1026" : {
      "Name" : "Unknown Tag & Data",
      "PrivateCreator" : "HOLOGIC, Inc.",
      "Type" : "String",
      "Value" : "NONE"
   },
   "0019,1027" : {
      "Name" : "Unknown Tag & Data",
      "PrivateCreator" : "HOLOGIC, Inc.",
      "Type" : "String",
      "Value" : "Center"
   },
   "0019,1028" : {
      "Name" : "Unknown Tag & Data",
      "PrivateCreator" : "HOLOGIC, Inc.",
      "Type" : "String",
      "Value" : "24x29"
   },
   "0019,1029" : {
      "Name" : "Unknown Tag & Data",
      "PrivateCreator" : "HOLOGIC, Inc.",
      "Type" : "String",
      "Value" : "AEC Density setting 0"
   },
   "0019,1030" : {
      "Name" : "Unknown Tag & Data",
      "PrivateCreator" : "HOLOGIC, Inc.",
      "Type" : "String",
      "Value" : "0"
   },
   "0019,1033" : {
      "Name" : "Unknown Tag & Data",
      "PrivateCreator" : "HOLOGIC, Inc.",
      "Type" : "String",
      "Value" : "1"
   },
   "0019,1034" : {
      "Name" : "Unknown Tag & Data",
      "PrivateCreator" : "HOLOGIC, Inc.",
      "Type" : "String",
      "Value" : "1"
   },
   "0019,1035" : {
      "Name" : "Unknown Tag & Data",
      "PrivateCreator" : "HOLOGIC, Inc.",
      "Type" : "String",
      "Value" : "2"
   },
   "0019,1037" : {
      "Name" : "Unknown Tag & Data",
      "PrivateCreator" : "HOLOGIC, Inc.",
      "Type" : "String",
      "Value" : "NO"
   },
   "0019,1040" : {
      "Name" : "Unknown Tag & Data",
      "PrivateCreator" : "HOLOGIC, Inc.",
      "Type" : "String",
      "Value" : "0"
   },
   "0019,1041" : {
      "Name" : "Unknown Tag & Data",
      "PrivateCreator" : "HOLOGIC, Inc.",
      "Type" : "String",
      "Value" : "349"
   },
   "0019,1042" : {
      "Name" : "Unknown Tag & Data",
      "PrivateCreator" : "HOLOGIC, Inc.",
      "Type" : "String",
      "Value" : "273"
   },
   "0019,1043" : {
      "Name" : "Unknown Tag & Data",
      "PrivateCreator" : "HOLOGIC, Inc.",
      "Type" : "String",
      "Value" : "1.32"
   },
   "0019,1044" : {
      "Name" : "Unknown Tag & Data",
      "PrivateCreator" : "HOLOGIC, Inc.",
      "Type" : "String",
      "Value" : "28"
   },
   "0019,1045" : {
      "Name" : "Unknown Tag & Data",
      "PrivateCreator" : "HOLOGIC, Inc.",
      "Type" : "String",
      "Value" : "0"
   },
   "0019,1046" : {
      "Name" : "Unknown Tag & Data",
      "PrivateCreator" : "HOLOGIC, Inc.",
      "Type" : "String",
      "Value" : "0"
   },
   "0019,1058" : {
      "Name" : "Unknown Tag & Data",
      "PrivateCreator" : "HOLOGIC, Inc.",
      "Type" : "String",
      "Value" : "YM800562"
   },
   "0019,1062" : {
      "Name" : "Unknown Tag & Data",
      "PrivateCreator" : "HOLOGIC, Inc.",
      "Type" : "String",
      "Value" : ""
   },
   "0019,1085" : {
      "Name" : "Unknown Tag & Data",
      "PrivateCreator" : "HOLOGIC, Inc.",
      "Type" : "String",
      "Value" : "0"
   },
   "0019,1090" : {
      "Name" : "Unknown Tag & Data",
      "PrivateCreator" : "HOLOGIC, Inc.",
      "Type" : "String",
      "Value" : "0.03"
   },
   "0019,1098" : {
      "Name" : "Unknown Tag & Data",
      "PrivateCreator" : "HOLOGIC, Inc.",
      "Type" : "String",
      "Value" : "0.02, 0.00, 0.02, 0.00, GFV=4.79, no gridline."
   },
   "0020,000d" : {
      "Name" : "StudyInstanceUID",
      "Type" : "String",
      "Value" : "1.2.840.113681.2887322370.1395049273.3372.2558"
   },
   "0020,000e" : {
      "Name" : "SeriesInstanceUID",
      "Type" : "String",
      "Value" : "1.2.840.113681.2887322370.1395049273.3372.2562"
   },
   "0020,0010" : {
      "Name" : "StudyID",
      "Type" : "String",
      "Value" : "H0317160000013"
   },
   "0020,0011" : {
      "Name" : "SeriesNumber",
      "Type" : "String",
      "Value" : "71000000"
   },
   "0020,0013" : {
      "Name" : "InstanceNumber",
      "Type" : "String",
      "Value" : "416"
   },
   "0020,0020" : {
      "Name" : "PatientOrientation",
      "Type" : "String",
      "Value" : "P\\L"
   },
   "0020,0062" : {
      "Name" : "ImageLaterality",
      "Type" : "String",
      "Value" : "R"
   },
   "0020,1002" : {
      "Name" : "ImagesInAcquisition",
      "Type" : "String",
      "Value" : "1"
   },
   "0028,0002" : {
      "Name" : "SamplesPerPixel",
      "Type" : "String",
      "Value" : "1"
   },
   "0028,0004" : {
      "Name" : "PhotometricInterpretation",
      "Type" : "String",
      "Value" : "MONOCHROME1"
   },
   "0028,0010" : {
      "Name" : "Rows",
      "Type" : "String",
      "Value" : "4096"
   },
   "0028,0011" : {
      "Name" : "Columns",
      "Type" : "String",
      "Value" : "3328"
   },
   "0028,0030" : {
      "Name" : "PixelSpacing",
      "Type" : "String",
      "Value" : "0.065238\\0.065238"
   },
   "0028,0100" : {
      "Name" : "BitsAllocated",
      "Type" : "String",
      "Value" : "16"
   },
   "0028,0101" : {
      "Name" : "BitsStored",
      "Type" : "String",
      "Value" : "14"
   },
   "0028,0102" : {
      "Name" : "HighBit",
      "Type" : "String",
      "Value" : "13"
   },
   "0028,0103" : {
      "Name" : "PixelRepresentation",
      "Type" : "String",
      "Value" : "0"
   },
   "0028,0300" : {
      "Name" : "QualityControlImage",
      "Type" : "String",
      "Value" : "YES"
   },
   "0028,0301" : {
      "Name" : "BurnedInAnnotation",
      "Type" : "String",
      "Value" : "NO"
   },
   "0028,1040" : {
      "Name" : "PixelIntensityRelationship",
      "Type" : "String",
      "Value" : "LIN"
   },
   "0028,1041" : {
      "Name" : "PixelIntensityRelationshipSign",
      "Type" : "String",
      "Value" : "1"
   },
   "0028,1050" : {
      "Name" : "WindowCenter",
      "Type" : "String",
      "Value" : "349"
   },
   "0028,1051" : {
      "Name" : "WindowWidth",
      "Type" : "String",
      "Value" : "500"
   },
   "0028,1052" : {
      "Name" : "RescaleIntercept",
      "Type" : "String",
      "Value" : "0"
   },
   "0028,1053" : {
      "Name" : "RescaleSlope",
      "Type" : "String",
      "Value" : "1"
   },
   "0028,1054" : {
      "Name" : "RescaleType",
      "Type" : "String",
      "Value" : "US"
   },
   "0028,1300" : {
      "Name" : "BreastImplantPresent",
      "Type" : "String",
      "Value" : "NO"
   },
   "0028,2110" : {
      "Name" : "LossyImageCompression",
      "Type" : "String",
      "Value" : "00"
   },
   "0040,0253" : {
      "Name" : "PerformedProcedureStepID",
      "Type" : "String",
      "Value" : "H0317160000012"
   },
   "0040,0254" : {
      "Name" : "PerformedProcedureStepDescription",
      "Type" : "String",
      "Value" : "Artifact Evaluation"
   },
   "0040,0302" : {
      "Name" : "EntranceDose",
      "Type" : "String",
      "Value" : "0"
   },
   "0040,0314" : {
      "Name" : "HalfValueLayer",
      "Type" : "String",
      "Value" : "0.543"
   },
   "0040,0316" : {
      "Name" : "OrganDose",
      "Type" : "String",
      "Value" : "0.0082"
   },
   "0040,0318" : {
      "Name" : "OrganExposed",
      "Type" : "String",
      "Value" : "BREAST"
   },
   "0040,0555" : {
      "Name" : "AcquisitionContextSequence",
      "Type" : "Sequence",
      "Value" : []
   },
   "0040,8302" : {
      "Name" : "EntranceDoseInmGy",
      "Type" : "String",
      "Value" : "6.75"
   },
   "0054,0220" : {
      "Name" : "ViewCodeSequence",
      "Type" : "Sequence",
      "Value" : [
         {
            "0008,0100" : {
               "Name" : "CodeValue",
               "Type" : "String",
               "Value" : "R-10242"
            },
            "0008,0102" : {
               "Name" : "CodingSchemeDesignator",
               "Type" : "String",
               "Value" : "SNM3"
            },
            "0008,0104" : {
               "Name" : "CodeMeaning",
               "Type" : "String",
               "Value" : "cranio-caudal"
            },
            "0054,0222" : {
               "Name" : "ViewModifierCodeSequence",
               "Type" : "Sequence",
               "Value" : []
            }
         }
      ]
   },
   "2050,0020" : {
      "Name" : "PresentationLUTShape",
      "Type" : "String",
      "Value" : "INVERSE"
   },
   "7fe0,0010" : {
      "Name" : "PixelData",
      "Type" : "Null",
      "Value" : null
   }
}
